module url-shortener

go 1.21.0

require (
	github.com/golang/mock v1.6.0
	github.com/ilyakaznacheev/cleanenv v1.5.0
	github.com/mattn/go-sqlite3 v1.14.16
	github.com/stretchr/testify v1.8.4
)

require (
	github.com/ajg/form v1.5.1 // indirect
	github.com/cespare/xxhash/v2 v2.2.0 // indirect
	github.com/davecgh/go-spew v1.1.1 // indirect
	github.com/dgryski/go-rendezvous v0.0.0-20200823014737-9f7001d12a5f // indirect
	github.com/gabriel-vasile/mimetype v1.4.2 // indirect
	github.com/go-playground/locales v0.14.1 // indirect
	github.com/go-playground/universal-translator v0.18.1 // indirect
	github.com/hashicorp/errwrap v1.1.0 // indirect
	github.com/hashicorp/go-multierror v1.1.1 // indirect
	github.com/kr/text v0.2.0 // indirect
	github.com/leodido/go-urn v1.2.4 // indirect
	github.com/niemeyer/pretty v0.0.0-20200227124842-a10e7caefd8e // indirect
	github.com/pmezard/go-difflib v1.0.0 // indirect
	go.uber.org/atomic v1.9.0 // indirect
	golang.org/x/crypto v0.17.0 // indirect
	golang.org/x/net v0.18.0 // indirect
	golang.org/x/sys v0.15.0 // indirect
	golang.org/x/text v0.14.0 // indirect
	gopkg.in/check.v1 v1.0.0-20200227125254-8fa46927fb4f // indirect
)

require (
	github.com/BurntSushi/toml v1.2.1 // indirect
	github.com/go-chi/chi/v5 v5.0.11
	github.com/go-chi/render v1.0.3
	github.com/go-playground/validator/v10 v10.17.0
	github.com/golang-migrate/migrate/v4 v4.17.0
	github.com/joho/godotenv v1.5.1 // indirect
	github.com/redis/go-redis/v9 v9.4.0
	gopkg.in/yaml.v3 v3.0.1 // indirect
	olympos.io/encoding/edn v0.0.0-20201019073823-d3554ca0b0a3 // indirect
)
